512
#...........	-2.96E-01
(...(...(...	6.64E-01
(...(.......	-2.49E-01
(...........	-2.74E-01
(...C...#...	-1.88E-01
(...C...(...	4.42E-01
(...F...(...	3.21E-01
(...Cl..(...	2.14E-01
(...N...#...	0.00E+00
(...N...(...	-2.66E-01
(...O...(...	6.63E-01
(...P...(...	0.00E+00
(...S...(...	-4.15E-01
(...c...(...	2.45E-01
(Cl.N)..1.1.	-4.22E-01
(Cl.N)..1.2.	5.43E-01
(Cl.N)..1.3.	-7.43E-01
(Cl.N)..1.4.	0.00E+00
(Cl.N)..2.1.	1.35E+00
(Cl.N)..2.2.	-7.44E-01
(Cl.N)..2.3.	8.21E-01
(Cl.N)..2.4.	0.00E+00
(Cl.N)..3.1.	1.25E+00
(Cl.N)..3.3.	0.00E+00
(Cl.N)..4.1.	0.00E+00
(Cl.N)..4.2.	-6.63E-01
(Cl.N)..5.1.	0.00E+00
(Cl.O)..#.1.	0.00E+00
(Cl.O)..1.1.	2.13E+00
(Cl.O)..1.2.	-4.53E-01
(Cl.O)..1.3.	-8.97E-01
(Cl.O)..1.4.	0.00E+00
(Cl.O)..1.5.	0.00E+00
(Cl.O)..1.6.	0.00E+00
(Cl.O)..1.7.	-2.40E-01
(Cl.O)..2.1.	2.44E-01
(Cl.O)..2.2.	-4.35E-01
(Cl.O)..2.3.	6.41E-01
(Cl.O)..2.4.	0.00E+00
(Cl.O)..3.1.	2.39E+00
(Cl.O)..3.2.	1.43E+00
(Cl.O)..3.3.	-8.00E-01
(Cl.O)..4.1.	-3.55E-01
(Cl.O)..4.2.	0.00E+00
(Cl.O)..4.4.	0.00E+00
(Cl.O)..5.1.	9.14E-01
(Cl.O)..5.2.	0.00E+00
1...(...(...	7.27E-01
1...(.......	-8.31E-02
1...........	-2.51E-02
1...2...(...	3.89E-01
1...2.......	1.47E+00
1...C...(...	-9.84E-02
1...C.......	0.00E+00
1...Cl..(...	3.12E-01
1...Cl......	-5.42E-01
1...N...(...	-9.92E-02
1...S...(...	5.80E-01
1...c...(...	2.99E-01
1...n...(...	-3.14E-01
1...o...(...	0.00E+00
2...(...(...	-6.87E-01
2...(.......	-3.79E-01
2...........	-1.18E-03
2...1.......	8.89E-01
2...3...(...	0.00E+00
2...3.......	0.00E+00
2...C...(...	6.77E-02
2...C...1...	0.00E+00
2...Cl..(...	8.86E-01
2...Cl......	1.23E+00
2...N...(...	2.14E-01
2...N...1...	-1.82E-01
2...O...(...	1.63E+00
2...S...(...	1.08E-01
2...c...(...	-4.89E-01
2...c...1...	1.17E+00
2...n...(...	-2.03E-01
2...s...(...	0.00E+00
3...(.......	4.22E-01
3...........	8.71E-02
3...2.......	0.00E+00
3...4...(...	0.00E+00
3...4.......	0.00E+00
3...C...(...	-9.91E-02
3...C.......	0.00E+00
3...C...1...	0.00E+00
3...C...2...	0.00E+00
3...Cl..(...	4.42E-01
3...Cl......	0.00E+00
3...N...(...	0.00E+00
3...N...2...	0.00E+00
3...c...(...	4.57E-01
3...c...1...	0.00E+00
3...c...2...	0.00E+00
3...n...(...	0.00E+00
4...(.......	-8.43E-01
4...........	4.48E-02
4...3.......	0.00E+00
4...C...(...	-4.66E-02
4...C...1...	0.00E+00
4...N...3...	0.00E+00
4...c...(...	0.00E+00
4...c...1...	1.09E+00
5...(...(...	0.00E+00
5...(.......	0.00E+00
5...........	0.00E+00
5...4.......	0.00E+00
5...C...(...	0.00E+00
5...Cl..(...	0.00E+00
6...(.......	0.00E+00
6...........	0.00E+00
6...C...(...	0.00E+00
=...(...(...	7.89E-02
=...(.......	-1.03E-02
=...(...1...	-1.05E-01
=...(...2...	1.45E+00
=...........	2.46E-01
=...1...(...	0.00E+00
=...1.......	0.00E+00
=...2.......	-7.22E-01
=...3.......	0.00E+00
=...4.......	0.00E+00
=...C...(...	3.83E-01
=...C...1...	-6.81E-01
=...C...2...	2.11E+00
=...C...3...	0.00E+00
=...C...5...	0.00E+00
=...N...(...	-3.50E-01
=...N...1...	-7.25E-01
=...N...2...	-4.42E-02
=...O...(...	4.58E-02
=...P...(...	1.31E+00
=...S...(...	5.15E-01
C...#.......	-2.87E-01
C...#...C...	1.70E+00
C...(...(...	1.66E-01
C...(.......	-6.30E-02
C...(...1...	8.29E-02
C...(...2...	-1.90E-01
C...(...3...	0.00E+00
C...(...4...	-6.63E-01
C...(...5...	0.00E+00
C...(...6...	0.00E+00
C...(...=...	6.72E-02
C...(...C...	5.29E-01
C...........	-2.79E-01
C...1...(...	6.77E-01
C...1.......	2.79E-01
C...1...2...	0.00E+00
C...1...=...	0.00E+00
C...1...C...	4.73E-01
C...2...(...	-1.03E-01
C...2.......	-3.41E-01
C...2...3...	0.00E+00
C...2...=...	-7.19E-01
C...2...C...	-5.74E-01
C...3...(...	-1.41E-01
C...3.......	-1.39E-01
C...3...4...	0.00E+00
C...3...=...	0.00E+00
C...3...C...	-1.57E-01
C...4...(...	0.00E+00
C...4.......	1.17E+00
C...4...5...	0.00E+00
C...4...=...	0.00E+00
C...4...C...	1.96E+00
C...5...(...	0.00E+00
C...5.......	0.00E+00
C...6...(...	0.00E+00
C...6.......	0.00E+00
C...6...C...	0.00E+00
C...=...(...	2.77E-01
C...=.......	-2.90E-01
C...=...1...	0.00E+00
C...=...2...	-6.06E-01
C...=...3...	0.00E+00
C...=...4...	0.00E+00
C...=...C...	7.75E-01
C...C...#...	-3.69E-01
C...C...(...	-2.26E-02
C...C.......	2.27E-02
C...C...1...	5.45E-01
C...C...2...	-5.77E-01
C...C...3...	9.67E-02
C...C...4...	1.02E+00
C...C...6...	0.00E+00
C...C...=...	-6.81E-01
C...C...C...	4.27E-01
C...Br..(...	0.00E+00
C...Br......	0.00E+00
C...I...(...	0.00E+00
C...Cl..(...	3.56E-01
C...Cl......	-7.11E-02
C...N...(...	5.12E-01
C...N.......	1.04E+00
C...N...1...	1.96E+00
C...N...2...	0.00E+00
C...N...=...	1.01E+00
C...N...C...	-8.45E-01
C...O...(...	1.37E-01
C...O.......	2.09E-01
C...O...1...	6.77E-01
C...O...2...	0.00E+00
C...O...3...	0.00E+00
C...O...5...	0.00E+00
C...O...C...	-4.72E-01
C...P...(...	0.00E+00
C...S...(...	1.33E-01
C...S...1...	0.00E+00
C...S...2...	-3.50E-01
C...S...C...	-8.31E-01
C...c...1...	1.09E+00
C...c...2...	-5.96E-01
C...c...3...	0.00E+00
C...n...2...	0.00E+00
C...n...3...	1.12E+00
F...(...(...	-3.99E-02
F...(.......	5.45E-02
F...(...1...	7.13E-01
F...(...3...	0.00E+00
F...(...C...	-3.01E-01
F...(...F...	3.28E-01
F...........	2.59E-01
F...C...(...	0.00E+00
F...C.......	0.00E+00
F...c...1...	0.00E+00
F...c...2...	0.00E+00
F...c...3...	9.15E-01
Br..(.......	0.00E+00
Br..(...C...	0.00E+00
Br..........	0.00E+00
Br..C...(...	0.00E+00
Br..C.......	0.00E+00
Br..C...C...	0.00E+00
I...(.......	0.00E+00
I...........	0.00E+00
I...C...#...	0.00E+00
I...C.......	0.00E+00
Cl..(...(...	8.52E-01
Cl..(.......	-2.43E-01
Cl..(...1...	1.49E+00
Cl..(...2...	2.61E-01
Cl..(...3...	1.72E+00
Cl..(...C...	4.29E-01
Cl..(...F...	-9.54E-02
Cl..(...Cl..	-1.39E-02
Cl..........	-1.16E-01
Cl..1.......	1.38E-01
Cl..1...=...	0.00E+00
Cl..2.......	1.24E+00
Cl..3.......	6.04E-01
Cl..5.......	0.00E+00
Cl..5...4...	0.00E+00
Cl..C...(...	2.13E-02
Cl..C.......	-1.15E-01
Cl..C...=...	-9.29E-02
Cl..C...C...	0.00E+00
Cl..N...(...	0.00E+00
Cl..N...1...	0.00E+00
N...#.......	-7.31E-01
N...#...C...	-5.07E-01
N...(...(...	2.04E+00
N...(.......	-2.07E-01
N...(...1...	-8.52E-01
N...(...2...	4.85E-01
N...(...3...	0.00E+00
N...(...C...	-1.84E-01
N...(...I...	0.00E+00
N...(...Cl..	5.04E-01
N...(...N...	1.49E+00
N...........	-1.12E-01
N...1...(...	1.31E+00
N...1.......	-2.45E-02
N...1...C...	-1.61E-01
N...2...(...	0.00E+00
N...2.......	-3.72E-02
N...2...C...	8.27E-01
N...2...N...	-1.62E-02
N...3.......	0.00E+00
N...3...C...	0.00E+00
N...4.......	0.00E+00
N...4...C...	0.00E+00
N...=...(...	-4.80E-01
N...=.......	-2.20E-01
N...=...1...	0.00E+00
N...=...3...	0.00E+00
N...=...C...	-4.40E-01
N...C...#...	0.00E+00
N...C...(...	7.22E-01
N...C.......	-1.02E-02
N...C...1...	0.00E+00
N...C...3...	6.91E-01
N...C...C...	-1.57E-01
N...Cl..(...	0.00E+00
N...Cl......	0.00E+00
N...N...(...	-1.19E-01
N...N.......	2.23E-01
N...N...1...	1.64E+00
N...N...2...	0.00E+00
N...N...=...	1.25E+00
N...N...C...	0.00E+00
N...O...(...	0.00E+00
N...O...C...	1.15E+00
N...S...(...	8.88E-01
N...c...1...	4.55E-01
N...c...2...	8.13E-01
N...c...3...	0.00E+00
O...(...(...	4.50E-01
O...(.......	1.50E-01
O...(...1...	5.35E-01
O...(...2...	1.65E+00
O...(...3...	-1.66E-01
O...(...=...	2.28E-01
O...(...C...	2.85E-02
O...(...F...	0.00E+00
O...(...N...	-1.90E-01
O...(...O...	7.74E-01
O...........	1.00E-01
O...1.......	5.67E-01
O...1...C...	-4.57E-01
O...2...(...	1.72E+00
O...2.......	3.59E-02
O...3...(...	0.00E+00
O...3.......	0.00E+00
O...3...C...	0.00E+00
O...5.......	0.00E+00
O...5...C...	0.00E+00
O...=...(...	7.02E-02
O...=.......	-7.83E-02
O...=...C...	3.46E-01
O...C...(...	-3.58E-01
O...C.......	4.35E-01
O...C...1...	1.08E+00
O...C...2...	3.43E-01
O...C...3...	0.00E+00
O...C...=...	1.83E+00
O...C...C...	2.32E-01
O...C...N...	-2.23E-01
O...N.......	3.69E-01
O...N...=...	4.36E-01
O...O...(...	-5.76E-01
O...O.......	-1.10E-01
O...O...C...	-4.87E-01
O...P...(...	0.00E+00
O...c...1...	5.13E-01
O...c...2...	3.01E-02
O...c...3...	3.03E-01
O...c...4...	0.00E+00
P...(.......	-8.83E-01
P...(...=...	0.00E+00
P...(...N...	0.00E+00
P...(...O...	1.44E-01
P...........	-2.91E-01
P...=.......	9.09E-01
P...=...O...	1.39E+00
P...C.......	0.00E+00
P...C...C...	0.00E+00
P...C...N...	0.00E+00
P...O...(...	0.00E+00
P...O.......	0.00E+00
S...(.......	-4.75E-01
S...(...2...	1.71E+00
S...(...=...	5.86E-02
S...(...C...	-1.84E-01
S...(...O...	0.00E+00
S...(...S...	4.48E-01
S...........	-4.10E-01
S...1...(...	0.00E+00
S...1.......	-1.88E-01
S...2...(...	-4.65E-01
S...2.......	4.89E-01
S...=...(...	3.72E-01
S...=.......	3.64E-01
S...=...O...	1.19E+00
S...C...(...	-2.60E-01
S...C.......	2.44E-02
S...C...1...	-5.66E-01
S...C...C...	-5.10E-01
S...N...(...	8.43E-01
S...N.......	1.11E+00
S...c...2...	0.00E+00
S...c...3...	0.00E+00
[N+]........	9.31E-02
[O-]........	1.61E-01
[Si]........	5.29E-01
[nH]........	0.00E+00
c...(...(...	-4.94E-01
c...(.......	-1.39E-01
c...(...1...	3.12E-01
c...(...2...	2.75E-01
c...(...3...	-9.86E-01
c...(...C...	-6.48E-02
c...(...F...	6.53E-01
c...(...Cl..	-5.97E-01
c...(...N...	2.65E-01
c...(...O...	1.08E+00
c...(...S...	0.00E+00
c...(...c...	2.00E-02
c...........	4.29E-02
c...1...(...	5.65E-01
c...1.......	7.80E-02
c...1...2...	1.37E+00
c...1...C...	-1.33E-01
c...1...Cl..	-1.12E-01
c...1...N...	9.92E-01
c...1...O...	2.12E+00
c...1...S...	3.61E-01
c...1...c...	1.43E-01
c...2...(...	1.47E-01
c...2.......	-1.34E-01
c...2...3...	0.00E+00
c...2...C...	0.00E+00
c...2...Cl..	1.05E+00
c...2...O...	0.00E+00
c...2...S...	0.00E+00
c...2...c...	-5.30E-01
c...3...(...	1.04E+00
c...3.......	-7.30E-02
c...3...4...	0.00E+00
c...3...C...	-4.69E-01
c...3...Cl..	4.93E-01
c...3...c...	7.32E-02
c...4...(...	1.20E-01
c...4.......	2.48E-01
c...4...c...	-1.29E-01
c...C...#...	3.30E-01
c...C...(...	1.48E+00
c...C.......	3.48E-01
c...C...1...	-5.29E-01
c...C...=...	1.30E+00
c...C...C...	0.00E+00
c...C...N...	0.00E+00
c...C...O...	2.04E+00
c...C...S...	0.00E+00
c...F.......	9.05E-01
c...N...(...	5.70E-01
c...N.......	8.48E-01
c...N...=...	2.00E-02
c...N...N...	-6.97E-01
c...O...(...	-5.78E-01
c...O.......	-2.19E-01
c...O...C...	-1.37E-02
c...S.......	0.00E+00
c...S...1...	0.00E+00
c...S...C...	0.00E+00
c...c...(...	-4.63E-02
c...c.......	-2.27E-01
c...c...1...	-4.10E-01
c...c...2...	4.71E-02
c...c...3...	-1.22E-01
c...c...4...	-3.32E-01
c...c...c...	9.35E-02
c...n...(...	-4.88E-01
c...n...1...	-6.16E-02
c...n...2...	4.16E-01
c...n...3...	3.18E-01
c...n...c...	9.04E-02
n...(.......	-3.35E-01
n...(...2...	-1.92E-01
n...(...3...	6.89E-01
n...(...C...	-5.18E-01
n...(...F...	0.00E+00
n...(...Cl..	0.00E+00
n...(...c...	-2.54E-01
n...........	1.31E-01
n...1...(...	3.11E-01
n...1.......	2.63E-01
n...1...c...	-7.22E-02
n...2...(...	4.72E-02
n...2.......	-9.09E-02
n...2...C...	0.00E+00
n...2...S...	-6.45E-01
n...2...c...	7.72E-01
n...2...n...	0.00E+00
n...3...(...	1.90E-01
n...3.......	4.92E-01
n...3...c...	6.41E-02
n...3...n...	1.52E+00
n...C...(...	5.33E-01
n...C.......	5.66E-01
n...c...(...	-2.07E-01
n...c.......	-2.50E-01
n...c...1...	6.61E-01
n...c...2...	-2.69E-01
n...c...3...	6.20E-01
n...c...c...	-7.24E-02
n...c...n...	9.24E-01
n...n...(...	-5.60E-01
n...n.......	-5.43E-01
n...n...1...	0.00E+00
n...n...2...	0.00E+00
n...n...c...	-2.37E-01
n...o...1...	0.00E+00
n...s...2...	0.00E+00
n...s...c...	0.00E+00
o...(.......	0.00E+00
o...(...2...	0.00E+00
o...........	-6.87E-01
o...1...(...	0.00E+00
o...1.......	-7.73E-01
o...1...c...	9.04E-01
o...n.......	0.00E+00
o...n...c...	0.00E+00
s...(.......	0.00E+00
s...(...Cl..	0.00E+00
s...........	0.00E+00
s...2.......	0.00E+00
s...c.......	0.00E+00
s...c...1...	0.00E+00
s...n.......	0.00E+00
s...n...n...	0.00E+00
