470
#...........	8.98658909834920E-01
$00000000000	0.00000000000000E+00
$00000000001	-5.66385979764200E-02
$00000000010	-1.51951668085530E-01
$00000000100	8.34566486999390E-01
$00001000000	1.08710294379853E+00
$00001000100	0.00000000000000E+00
$00010000000	1.14178404002450E+00
$00011000000	2.64727075584230E-01
$01010000010	1.66502257320099E+00
$01010000100	0.00000000000000E+00
$10000000000	-3.60203751130030E-01
$10001000000	9.58005972206600E-02
$10001000010	-1.23700108611960E-01
$10001000100	1.70636470383033E+00
$10001001000	0.00000000000000E+00
$10001100000	1.06156744342297E+00
$10010000000	0.00000000000000E+00
$10010100000	0.00000000000000E+00
$10011000000	4.97211172012610E-01
$10011000010	4.40682658925650E-01
$10011000100	-5.57934769894900E-02
$10011100000	1.15364431915805E+00
$10011100100	0.00000000000000E+00
$10100000000	0.00000000000000E+00
$10101000000	1.54599626781420E-01
$10111000000	1.01396230841056E+00
$11001000000	1.59238930488937E+00
$11011000001	1.19603081792593E+00
(...(.......	-2.65977807575840E-01
(...........	-2.55990961100910E-01
(...C...#...	3.90302599943243E+00
(...C...(...	1.41356752254070E-01
(...F...(...	0.00000000000000E+00
(...Br..(...	-1.74913006322458E+00
(...Cl..(...	1.43616530788131E+00
(...N...#...	0.00000000000000E+00
(...N...(...	3.37478728732090E-01
(...O...(...	2.14925549458710E-01
(...c...(...	4.62230334291240E-01
+...........	-9.01370765641300E-02
+...[...(...	-4.62874294491490E-01
-...........	-3.56891280505810E-01
-...[...(...	2.67218916909770E-01
/...(.......	4.74506411701440E-01
/...........	4.10774398827930E-01
/...C...(...	-6.16198829375200E-02
1...(.......	-3.67630813503640E-01
1...(.../...	0.00000000000000E+00
1...........	-4.41916891140860E-01
1.../.......	1.15555765153840E+00
1...C...(...	2.66958809224890E-01
1...C.../...	1.94920372776687E+00
1...Cl..(...	1.51258922577836E+00
1...N...(...	0.00000000000000E+00
1...O...(...	1.63546919985674E+00
1...S...(...	0.00000000000000E+00
1...c...(...	2.72745567141100E-01
1...c.../...	1.44641205901280E+00
1...n...(...	2.31145415897481E+00
2...(...(...	-1.11306145787239E+00
2...(.......	5.96283286577090E-01
2...(.../...	0.00000000000000E+00
2...........	9.31874883826800E-02
2.../.......	0.00000000000000E+00
2...1.......	1.93073418689890E-01
2...3...(...	1.03511954797432E+00
2...C...(...	-9.32068752823400E-01
2...N...(...	-2.53830553963780E-01
2...O...(...	4.62208876153450E-01
2...O...1...	0.00000000000000E+00
2...c...(...	2.51275645801800E-01
2...c.../...	0.00000000000000E+00
2...c...1...	1.43929914268665E+00
3...(.......	-1.01920372107998E+00
3...........	1.49617891828529E+00
3.../.......	0.00000000000000E+00
3...2.......	1.40781439491548E+00
3...C...(...	0.00000000000000E+00
3...C...1...	2.66971993958580E-01
3...N...2...	0.00000000000000E+00
3...c...(...	1.89302407274954E+00
3...c...2...	0.00000000000000E+00
4...........	2.58904935093600E-01
4...c...(...	-6.33048290386800E-01
4...c...1...	0.00000000000000E+00
4...c...3...	0.00000000000000E+00
4...n...(...	-1.47837612614967E+00
5...........	3.03387762047350E-01
5...4.......	0.00000000000000E+00
5...c...(...	7.73015593644230E-01
=...(...(...	-1.54921059263870E-01
=...(.......	-1.50609277188780E-01
=...........	-2.84040100639690E-01
=...1...(...	0.00000000000000E+00
=...1.......	6.32284104591240E-01
=...2.......	1.25673920009285E+00
=...3.......	0.00000000000000E+00
=...C...(...	-1.09045185614380E-01
=...C.../...	4.49135999660900E-02
=...C...1...	4.54981292225420E+00
=...C...2...	3.22162376251100E-02
=...C...3...	0.00000000000000E+00
=...C...=...	1.06407681643031E+00
=...N...(...	6.53847512789070E-01
=...N.../...	-3.23325111297890E-01
=...O...(...	-5.09886830113800E-02
=...S...(...	-8.16584073472800E-02
@...........	-2.38514404743910E-01
@...[...1...	0.00000000000000E+00
@...[...2...	-3.94437410868700E-02
@@..........	3.35244465852160E-01
@@..[...(...	0.00000000000000E+00
C...#.......	2.93909811181950E-01
C...#...C...	3.12427652301267E+00
C...(...(...	-1.99154475005340E-01
C...(.......	-2.81433356925850E-01
C...(.../...	8.90000039944430E-01
C...(...1...	3.58957615215330E-01
C...(...2...	0.00000000000000E+00
C...(...=...	-3.56361931189900E-02
C...(...C...	-2.25163188995790E-01
C...........	-4.57919282373040E-01
C.../...(...	1.86729684169404E+00
C.../.......	7.66468197107300E-02
C.../...3...	0.00000000000000E+00
C.../...C...	-9.71170826815100E-02
C...1...(...	-4.62088308995590E-01
C...1.......	5.85175803862510E-01
C...1.../...	-2.59986103046700E-02
C...1...=...	4.65681881178170E-01
C...1...C...	7.39842680515720E-01
C...2...(...	0.00000000000000E+00
C...2.......	-7.72201335290450E-01
C...2...1...	0.00000000000000E+00
C...2...=...	2.73619236657400E-01
C...2...C...	-5.52060057409110E-01
C...3...(...	6.87860837904740E-01
C...3.......	-3.44720645807700E-02
C...3.../...	0.00000000000000E+00
C...3...2...	-2.01773870736360E-01
C...3...=...	0.00000000000000E+00
C...3...C...	-6.84464401565500E-02
C...=...(...	-1.81554768001660E-01
C...=.......	6.63549792952840E-01
C...=...1...	4.38799916999420E-01
C...=...3...	0.00000000000000E+00
C...=...C...	-3.44439224572850E-01
C...@.......	-4.79104259982710E-01
C...@@......	-2.13432448217650E-01
C...C...#...	2.08386455196890E-01
C...C...(...	-5.20151445409280E-01
C...C.......	1.24338760040700E-01
C...C...1...	-1.53102685930210E-01
C...C...2...	5.93772639986130E-01
C...C...3...	-8.96213342202830E-01
C...C...=...	-3.16833265125750E-01
C...C...C...	-1.07232294743880E-01
C...Br..(...	7.03962138388310E-01
C...N...(...	-6.02497562533240E-01
C...N...1...	9.29063634015620E-01
C...N...2...	4.78189606918020E-01
C...N...C...	-4.59473155904560E-01
C...O...(...	2.36287002684550E-01
C...O.../...	7.36856793984770E-01
C...O...1...	1.72387099103071E+00
C...O...2...	-3.23279372882100E-01
C...O...3...	-5.56314905872570E-01
C...O...C...	-1.53549389261752E+00
C...S...(...	-9.84061450930310E-01
C...S...3...	0.00000000000000E+00
C...[...(...	-7.63638026546700E-02
C...[...2...	0.00000000000000E+00
C...[...C...	2.85437602782620E-01
C...\...(...	-4.75798939820380E-01
C...\...1...	0.00000000000000E+00
C...\...C...	-2.17574100010100E-01
C...c...1...	-2.16604135232050E-01
C...c...2...	0.00000000000000E+00
C...c...4...	0.00000000000000E+00
F...(...(...	0.00000000000000E+00
F...(.......	0.00000000000000E+00
F...(...C...	0.00000000000000E+00
F...(...F...	0.00000000000000E+00
F...........	0.00000000000000E+00
H...........	9.69039974730000E-04
H...@.......	-3.49575700704010E-01
H...@...C...	-2.67427396727730E-01
H...@@......	3.12452793121340E-01
H...@@..C...	-2.82950877910480E-01
H...[...(...	1.09448669943960E-01
H...[...1...	0.00000000000000E+00
H...[...2...	-3.15654790960250E-01
H...[...3...	-3.91513052629310E-01
Br..(...(...	9.68226626981050E-01
Br..(.......	-2.42881280602890E-01
Br..(...C...	-2.56764737889170E-01
Br..........	2.01255121966820E-01
Br..C...(...	1.25400714529678E+00
Br..C.......	-3.27682954957710E-01
Br..C...C...	1.60667573101820E-01
I...........	2.12465471355250E-01
I...C...#...	3.63668708596380E-01
I...C.......	1.36262989835810E-01
I...C...C...	4.24432519823310E-01
Cl..(.......	1.46744067315000E-02
Cl..(...=...	0.00000000000000E+00
Cl..(...C...	0.00000000000000E+00
Cl..........	2.02321383170780E-01
Cl..1.......	2.83373133046550E-01
Cl..2.......	0.00000000000000E+00
Cl..C...(...	1.02912991074850E-01
Cl..C.......	2.66537400521337E+00
Cl..C...1...	0.00000000000000E+00
Cl..C...C...	0.00000000000000E+00
Cl..c...1...	5.36630278686060E-01
Cl..c...2...	0.00000000000000E+00
N...#.......	8.97103284718470E-01
N...#...C...	1.33209789311513E+00
N...(.......	2.09820841206240E-01
N...(...C...	1.29208541661501E+00
N...(...N...	0.00000000000000E+00
N...+.......	-2.59113019797950E-01
N...........	1.02715393924154E+00
N.../...(...	0.00000000000000E+00
N.../.......	6.63793112384160E-01
N.../...2...	0.00000000000000E+00
N.../...C...	2.29962428333240E-01
N...1.......	1.36933645233510E-01
N...1...C...	-1.36599855264650E-01
N...2.......	-5.76024628710000E-01
N...2...C...	-1.74136215355200E-02
N...3.......	0.00000000000000E+00
N...3...C...	0.00000000000000E+00
N...=...(...	1.21184559771791E+00
N...=.......	2.74597599403930E-01
N...=...1...	1.02001334354281E+00
N...=...2...	4.78168908739460E-01
N...=...C...	2.60816136840730E-01
N...=...N...	0.00000000000000E+00
N...C...(...	-6.95758138783280E-01
N...C.......	-4.44117135601120E-01
N...C...1...	-8.03719502873700E-02
N...C...C...	4.87612816505000E-03
N...C...N...	-1.37736992910500E-01
N...N.......	1.99688459048050E-01
N...N...2...	-2.72582170087840E-01
N...N...=...	-4.79606525739660E-01
N...S...C...	-1.17666741553694E+00
N...[...(...	3.09599933447320E-01
N...[...1...	-1.98510794574395E+00
N...[...=...	-4.69599488424140E-01
N...[...N...	2.11747184395790E-01
N...\...(...	1.35096475714820E-01
N...c...1...	2.14600695762780E-01
O...(...(...	6.33205227321010E-01
O...(.......	-4.41960551775990E-01
O...(.../...	1.17953790421598E+00
O...(...3...	-2.44975626934320E-01
O...(...C...	3.52576400619000E-02
O...(...N...	-2.11960542947100E-02
O...(...O...	-3.24961060425270E-01
O...-.......	8.87842565309260E-01
O...........	-4.44439383456480E-01
O.../.......	7.02933688648050E-01
O.../...1...	-3.14870855538180E-01
O...1...(...	-1.95483697811142E+00
O...1.......	7.42930988781000E-03
O...1...C...	1.78015873953700E+00
O...2.......	4.84845492755990E-01
O...3...(...	-1.09057472879067E+00
O...3.......	-2.89982858812440E-01
O...5.......	-9.98966116458000E-03
O...=...(...	1.42551035387440E-01
O...=.......	8.11665799934420E-01
O...=...1...	7.04563993495000E-02
O...=...C...	2.46619036421180E-01
O...=...N...	1.13494111387990E+00
O...C...(...	-1.69710333924740E-01
O...C.......	2.70791610935700E-01
O...C...1...	4.82560948468750E-01
O...C...2...	1.51926179649310E-01
O...C...3...	-7.46780415531250E-01
O...C...C...	-2.39298243774100E-01
O...C...O...	-3.95873330533510E-01
O...S...(...	0.00000000000000E+00
O...[...(...	5.21932205650960E-01
O...\...C...	1.52509286766870E-01
O...\...N...	1.14055289886890E-01
O...c...1...	3.58956526266410E-01
O...c...2...	5.28288609813900E-01
O...c...4...	6.36307989479970E-01
S...(.......	-2.44410689920200E-02
S...(...=...	3.18988410988820E-01
S...(...C...	0.00000000000000E+00
S...(...N...	0.00000000000000E+00
S...(...S...	0.00000000000000E+00
S...........	1.38993877056055E+00
S...1.......	0.00000000000000E+00
S...3.......	0.00000000000000E+00
S...3...C...	0.00000000000000E+00
S...=...(...	0.00000000000000E+00
S...=.......	1.99245303357020E+00
S...=...C...	-2.23759975051510E-01
S...=...O...	1.38307337928563E+00
S...C...(...	0.00000000000000E+00
S...C.......	8.87329618912190E-01
S...C...2...	0.00000000000000E+00
S...C...=...	-2.05031615309417E+00
S...N.......	3.77799561014400E-01
S...N...1...	-1.61175872059539E+00
S...N...2...	0.00000000000000E+00
S...O.......	0.00000000000000E+00
S...S...(...	0.00000000000000E+00
S...S.......	0.00000000000000E+00
S...S...C...	0.00000000000000E+00
S...c...1...	0.00000000000000E+00
[...(.......	9.16124877985600E-02
[...(...=...	-1.39900305727497E+00
[...(...C...	3.78780700033530E-01
[...(...Cl..	1.45427178684622E+00
[...(...N...	5.20162072731180E-01
[...(...O...	3.69110181462020E-01
[...(...[...	-4.31212310213600E-02
[...+.......	-9.34645552188200E-02
[...+...N...	1.45870070741512E+00
[...-.......	1.17195223318413E+00
[...-...O...	-1.62943435600030E-01
[...........	4.31493158452210E-01
[...1.......	8.28165197046470E-01
[...1...2...	0.00000000000000E+00
[...1...C...	0.00000000000000E+00
[...2.......	-1.20226655155420E-01
[...2...3...	5.57157587492840E-01
[...2...C...	5.15340589918200E-02
[...2...[...	0.00000000000000E+00
[...3.......	5.79155115410700E-02
[...3...C...	-3.46741602523250E-01
[...=.......	7.44005810935050E-01
[...=...O...	1.20450431224890E+00
[...@.......	-4.45351427420970E-01
[...@...C...	-3.61127766082060E-01
[...@@......	0.00000000000000E+00
[...@@..C...	0.00000000000000E+00
[...C.......	-2.03515945933760E-01
[...C...1...	-3.84186441777270E-01
[...C...3...	-5.28390730265530E-01
[...C...@...	2.46799762593580E-01
[...C...@@..	9.82429608702700E-02
[...C...C...	-2.97817282611500E-01
[...H.......	-1.44162415526800E-02
[...H...@...	1.13166928058490E-01
[...H...@@..	4.62955227121700E-02
[...N...(...	1.41320717777125E+00
[...N...+...	1.24094352917746E+00
[...N.......	-1.55518998624760E-01
[...O...-...	2.34025027602900E-02
[...O.......	-1.64247022708880E-01
[...[...-...	0.00000000000000E+00
[...[.......	0.00000000000000E+00
[...[...N...	0.00000000000000E+00
\...(.......	-2.37341179279610E-01
\...(...C...	-3.95788261201230E-01
\...(...O...	1.67925248970278E+00
\...........	2.18034226447340E-01
\...1.......	0.00000000000000E+00
\...1...C...	0.00000000000000E+00
\...C...(...	4.27975546335800E-01
\...C.......	-2.98473183996980E-01
\...C...=...	3.43109048204500E-01
\...C...C...	-1.06917206663640E-01
\...C...O...	0.00000000000000E+00
\...N.......	8.80969297140800E-02
\...N...=...	-1.42498051584698E+00
\...O...(...	-5.94936463516210E-01
\...O.......	4.91241441806780E-01
\...O...C...	1.05119926389307E+00
\...c...1...	0.00000000000000E+00
\...c...2...	0.00000000000000E+00
c...(...(...	-8.44093170715500E-01
c...(.......	1.33092875778675E+00
c...(.../...	0.00000000000000E+00
c...(...1...	1.59418018301949E+00
c...(...2...	-6.09940431779250E-01
c...(...3...	-3.87119523249570E-01
c...(...C...	-5.88367265416310E-01
c...(...F...	0.00000000000000E+00
c...(...Br..	-1.05321320635267E+00
c...(...Cl..	-5.86017327383160E-01
c...(...N...	7.69847369054330E-01
c...(...O...	-5.02086873166300E-02
c...(...S...	9.02610996272400E-02
c...(...[...	8.97035469301050E-01
c...(...\...	-4.60115126101300E-01
c...(...c...	-5.56099756155160E-01
c...........	-1.19913854403420E-01
c.../...(...	0.00000000000000E+00
c.../.......	1.39544916502200E+00
c.../...C...	1.52851130301133E+00
c.../...N...	0.00000000000000E+00
c...1...(...	-6.39435338787740E-01
c...1.......	-4.58547353046020E-01
c...1...2...	-6.72531453893000E-03
c...1...C...	3.59664456220340E-01
c...1...Cl..	-6.19299730286000E-01
c...1...N...	1.11002333671786E+00
c...1...O...	-1.55122186522930E-01
c...1...[...	-1.75953434989788E+00
c...1...c...	-3.66087243892250E-01
c...2...(...	1.12007607938720E-01
c...2.......	4.22126481775190E-01
c...2.../...	0.00000000000000E+00
c...2...3...	1.46696310490370E+00
c...2...C...	-2.05998199526200E-02
c...2...Cl..	0.00000000000000E+00
c...2...N...	1.73501327866690E-01
c...2...O...	-1.10518751945347E+00
c...2...c...	2.01794187771160E-01
c...3...(...	-1.27803226606920E+00
c...3.......	1.73779076826759E+00
c...3...c...	4.61715861596167E+00
c...4.......	6.58811031142250E-01
c...4...5...	0.00000000000000E+00
c...4...c...	1.36817040084861E+00
c...5.......	1.27809240203351E+00
c...5...O...	-8.23188869981100E-01
c...5...c...	7.33246600721030E-01
c...C...(...	5.41633970569800E-02
c...C.......	-1.26803454011680E-01
c...C...=...	4.80632107472050E-01
c...C...C...	0.00000000000000E+00
c...C...Br..	2.60597642278300E-01
c...C...Cl..	0.00000000000000E+00
c...C...O...	-5.26427664561200E-01
c...Cl......	-2.89426635485140E-01
c...N...(...	-8.61352744977900E-02
c...N.......	1.35158189944923E+00
c...N...=...	2.90645877132190E-01
c...O...(...	-1.14410680253060E-01
c...O.......	-4.46989028016110E-01
c...O...5...	2.15450367890300E-01
c...O...C...	-3.18935943068940E-01
c...S.......	0.00000000000000E+00
c...S...N...	0.00000000000000E+00
c...\.......	0.00000000000000E+00
c...\...C...	0.00000000000000E+00
c...\...N...	0.00000000000000E+00
c...c...(...	9.23364110058170E-01
c...c.......	-4.34388183988630E-01
c...c...1...	1.15783870522864E+00
c...c...2...	1.05494247330353E+00
c...c...3...	1.63271359843202E+00
c...c...4...	1.12483093328774E+00
c...c...5...	1.47859611199237E+00
c...c...c...	-1.57588735688480E-01
c...n...(...	1.27794329612516E+00
c...n...1...	-7.81680094078200E-02
c...n...c...	-1.23146963748150E+00
n...(.......	4.23616139683870E-01
n...(...3...	-9.99184525804590E-01
n...(...Cl..	1.13516634330154E+00
n...........	1.83701437199490E-01
n...1.......	6.72829476650800E-01
n...1...c...	1.52402333565988E+00
n...4.......	-1.59453174192458E+00
n...4...c...	-1.37219198117964E+00
n...c...(...	-1.94333610124900E-02
n...c.......	2.82719345064830E-01
n...c...4...	-1.58194050751626E+00
n...c...c...	-9.81862785527480E-01
