205
#...........	9.95858937329613E-01
$00000000000	7.00191459688591E+00
$00000000100	7.00186557218432E+00
$00000000110	0.00000000000000E+00
$00000010000	8.87079053206835E+00
$00000100100	0.00000000000000E+00
$00000101000	0.00000000000000E+00
$00001000000	1.37500828806753E+01
$00001000010	1.45003991898847E+01
$00001000100	6.25126184431138E+00
$00001001100	0.00000000000000E+00
$00001010000	-6.49946787452558E+00
$00001100000	1.30034328913735E+01
$00010000000	3.24580719234655E+00
$00010000100	9.99753222567961E-01
$00010100000	0.00000000000000E+00
$00011000000	6.99750646130648E+00
$01010000000	0.00000000000000E+00
$01010000100	-6.49853469204158E+00
$01010001110	0.00000000000000E+00
$01011001000	-6.50376891476568E+00
$01011001110	1.07483279963978E+01
$10000000000	1.59951821978110E+01
$10000000100	1.60031153976987E+01
$10001000000	8.49766218546312E+00
$10001000010	0.00000000000000E+00
$10001000100	-3.50440488616005E+00
$10001001000	-6.50339262919733E+00
$10001001100	7.00172190640587E+00
$10001010000	1.59957615219638E+01
$10001100000	1.59967977054324E+01
$10001100001	-2.37881375898840E+00
$10001101000	0.00000000000000E+00
$10001110000	-6.50187150110258E+00
$10001110100	0.00000000000000E+00
$10001110110	0.00000000000000E+00
$10010000000	-6.50214342364576E+00
$10010001000	3.99553965762490E+00
$10010100000	7.00013809458353E+00
$10011000000	3.24976564724697E+00
$10011000100	4.74718132413458E+00
$10011001000	9.24865464751841E+00
$10011001100	3.24552281463519E+00
$10011010000	1.00250567855081E+00
$10011100000	1.00380152650643E+00
$10011100100	6.99554534176597E+00
$10011101000	4.00487196343951E+00
$10011101100	-6.49653386146994E+00
$10011110000	-6.50164095318411E+00
$11001000000	0.00000000000000E+00
$11001001100	-5.75230596128851E+00
$11010000100	0.00000000000000E+00
$11011000000	0.00000000000000E+00
$11011000001	0.00000000000000E+00
$11011000010	0.00000000000000E+00
$11011000100	1.15038991383533E+01
$11011001000	-6.85934598934840E-01
$11011001100	0.00000000000000E+00
(...(.......	-8.72989504653960E-01
(...........	-8.70204805529210E-01
+...........	5.87829373043496E+00
-...........	-5.02825204448309E-01
1...(.......	5.12858796558343E+00
1...........	-1.43897737217369E+00
2...(.......	8.16687948680480E-01
2...........	-1.43928565275623E+00
2...1.......	3.24804404199123E+00
3...(.......	7.74917467772728E+00
3...........	-8.75293071880005E-01
3...2.......	3.24910484723980E+00
4...(.......	-6.50101567841135E+00
4...........	-5.00363619807409E+00
4...3.......	-1.25166467920411E+00
5...(.......	2.87188137215795E+00
5...........	6.62214326949790E+00
6...(.......	1.00405773618957E+00
6...........	6.25388885632623E+00
7...(.......	0.00000000000000E+00
7...........	0.00000000000000E+00
=...(.......	2.45616725746077E-01
=...........	1.74882549913134E+00
=...1.......	7.00055771625834E+00
=...2.......	0.00000000000000E+00
=...3.......	6.25456317860400E+00
=...4.......	-3.50378128496464E+00
C...#.......	-3.07794493024700E-01
C...(.......	2.48172808559611E-01
C...........	-1.25188500925200E+00
C...1.......	2.87054909724277E+00
C...2.......	-1.99769027142553E+00
C...3.......	-4.62856601500884E+00
C...4.......	-5.00198620679090E+00
C...5.......	3.81747060169000E+00
C...6.......	8.12886916464427E+00
C...7.......	0.00000000000000E+00
C...=.......	-1.81182062898995E+00
C...C.......	8.12707641771990E-01
F...(.......	2.48633323565591E-01
F...........	-8.72555397078390E-01
F...C.......	-6.50377849601442E+00
As..........	0.00000000000000E+00
H...+.......	0.00000000000000E+00
H...........	2.87306445629336E+00
Br..(.......	-4.96659520522230E-01
Br..........	-8.77573146303184E-01
Br..1.......	4.37002038737061E+00
Br..2.......	1.29994482241012E+01
Br..C.......	0.00000000000000E+00
I...(.......	-1.81525897658896E+00
I...........	-2.00282464807620E+00
I...C.......	0.00000000000000E+00
Cl..(.......	-1.62056357578607E+00
Cl..........	6.27449295809499E-02
Cl..1.......	4.75340018405812E+00
Cl..2.......	0.00000000000000E+00
Cl..3.......	-1.25156247381354E+00
Cl..C.......	-6.49851072808262E+00
N...#.......	-6.49655698876595E+00
N...(.......	-1.62676294590347E+00
N...+.......	5.50258546464844E+00
N...........	2.49997582282405E+00
N...1.......	3.25145576187642E+00
N...2.......	2.50429303478450E-01
N...3.......	5.49533177053323E+00
N...4.......	1.44983455377491E+01
N...=.......	1.55755971713224E+00
N...C.......	-6.87451751464980E-01
N...H.......	0.00000000000000E+00
N...N.......	-1.99955247508828E+00
O...(.......	-6.83684640496500E-01
O...-.......	-1.62602899119258E+00
O...........	2.68295028939610E+00
O...1.......	-1.99555487559643E+00
O...2.......	-6.50462223164504E+00
O...3.......	0.00000000000000E+00
O...5.......	9.95877564668190E-01
O...6.......	0.00000000000000E+00
O...7.......	0.00000000000000E+00
O...=.......	2.87392327414826E+00
O...C.......	1.74795302921673E+00
O...N.......	-4.62650207966100E+00
O...O.......	0.00000000000000E+00
P...(.......	-3.50215804059990E+00
P...........	-5.18383819380077E+00
P...=.......	2.49755019949284E+00
P...C.......	5.50495895854430E+00
P...O.......	-6.50055830281228E+00
S...(.......	-1.62042499032104E+00
S...........	-1.25103581977543E+00
S...1.......	-5.75235436800634E+00
S...2.......	0.00000000000000E+00
S...=.......	-1.62914818017976E+00
S...C.......	-4.24619812336285E+00
S...N.......	2.50469804571243E+00
S...O.......	0.00000000000000E+00
S...P.......	0.00000000000000E+00
Si..........	0.00000000000000E+00
Sn..........	-3.50456970909378E+00
[...(.......	-3.68578709975816E+00
[...+.......	5.50268146554707E+00
[...-.......	-4.43836266557220E+00
[...........	-3.31634086330188E+00
[...1.......	0.00000000000000E+00
[...2.......	0.00000000000000E+00
[...=.......	-5.75159037092235E+00
[...C.......	0.00000000000000E+00
[...As......	0.00000000000000E+00
[...H.......	4.37587569226278E+00
[...N.......	6.99665397353005E+00
[...O.......	-4.99780748392222E+00
[...Si......	0.00000000000000E+00
[...Sn......	-3.12312902836362E+00
c...(.......	6.28393189688210E-01
c...........	-1.26107853555586E-01
c...1.......	1.37136093067937E+00
c...2.......	-8.71251806032380E-01
c...3.......	-1.25732079804875E-01
c...4.......	9.99117096357513E-01
c...C.......	5.87878318276256E+00
c...F.......	0.00000000000000E+00
c...N.......	5.50277552003507E+00
c...O.......	-3.31327623035526E+00
c...S.......	-3.49720531473868E+00
c...[.......	8.12317406602902E+00
c...c.......	-8.70422692489810E-01
n...(.......	-3.49896317577688E+00
n...+.......	0.00000000000000E+00
n...........	-2.00036597499857E+00
n...1.......	-8.72969575407910E-01
n...2.......	-1.25486652614316E+00
n...3.......	0.00000000000000E+00
n...C.......	-3.87656253856840E+00
n...H.......	1.56660055664834E+00
n...[.......	9.96032086790074E-01
n...c.......	4.00121873825788E+00
n...n.......	3.24954065173632E+00
o...........	0.00000000000000E+00
o...1.......	0.00000000000000E+00
o...c.......	0.00000000000000E+00
s...(.......	-6.50304575297283E+00
s...........	-5.75311034188140E+00
s...1.......	0.00000000000000E+00
s...2.......	-6.50045520661399E+00
s...c.......	3.24851683268091E+00
s...n.......	0.00000000000000E+00
