217
(...(.......	-2.18382897658972
(...........	-0.87033757427707
/...(.......	-1.62764042036841
/...........	1.74818619762082
1...(.......	1.93722421339015
1...........	3.99544233932160
1.../.......	2.49669029424665
2...(.......	10.37130214442960
2...........	0.99914901922690
2...1.......	1.94195774309337
3...(.......	-10.81294573582940
3...........	-1.99879286000039
3...1.......	0.00000000000000
4...(.......	-0.12488077326678
4...........	-3.87509858946549
=...(.......	-1.99536434673239
=...........	0.06042885666015
=...1.......	-2.18496832227334
=...2.......	10.19136408092220
@...........	-1.06471102706622
@@..........	-0.68791525324574
C...(.......	0.80870485263877
C...........	-1.25106509418460
C.../.......	1.74534948968794
C...1.......	3.25182749509113
C...2.......	4.37166043277830
C...3.......	10.75262707691400
C...=.......	0.99690708781127
C...@.......	1.55772615198279
C...@@......	2.68984181423672
C...C.......	1.74764829733176
C5......0...	6.43845389615279
C5......1...	4.74950942808064
C5......2...	0.00000000000000
C5......4...	5.68561965366593
C5....H.1...	-3.49589635151904
C5....H.2...	0.00000000000000
C5...A..1...	7.55759202024899
C5...AH.1...	-5.00112934005680
C6......0...	6.62069190321025
C6......1...	0.00000000000000
C6......2...	0.00000000000000
C6......3...	2.87234172343975
C6....H.1...	8.49541337250266
C6....H.3...	1.56261814825470
C6...A..1...	4.37208122217096
C6...A..2...	17.30762528237650
C6...A..3...	7.18665261074435
C6...A..4...	0.00000000000000
C6...AH.1...	-1.81255509702489
C6...AH.2...	-10.80882313451030
C6...AH.3...	-0.31683568760287
C6...AH.4...	2.68590915220091
BOND00000000	6.81701854552142
BOND00100000	-10.06627267652420
BOND10000000	2.31675946922507
BOND10100000	0.81025747395353
F...(.......	-0.50108614202589
F...........	2.12042748231208
EC0-C...1...	0.25115363689605
EC0-C...2...	-0.49942786711967
EC0-C...3...	0.25409102109261
EC0-C...4...	-2.55874353154795
EC0-F...1...	0.99963356095832
EC0-Br..1...	-0.87475757687120
EC0-Cl..1...	-2.55822566235438
EC0-N...1...	-2.56127504410455
EC0-N...2...	0.80919841219205
EC0-N...3...	-2.75100679749390
EC0-N...4...	0.00000000000000
EC0-O...1...	-1.06009541486623
EC0-O...2...	0.24633188133594
EC0-P...3...	0.00000000000000
EC0-P...4...	1.93983403928578
EC0-S...1...	5.31481480397051
EC0-S...2...	-2.94043861681130
EC0-S...4...	3.25016186684603
EC0-o...2...	11.87077126593320
H...........	-2.37680161978351
H...@.......	-0.12603937991429
H...@@......	2.87203553279163
Br..(.......	0.62688051858917
Br..........	-1.43578316373983
Br..1.......	0.00000000000000
Br..C.......	0.00000000000000
Cl..(.......	2.68444340440445
Cl..........	2.12859705551295
Cl..1.......	9.06366344252136
Cl..3.......	0.00000000000000
Cl..C.......	1.37638822089881
HALO00000000	-2.18723968927050
HALO00100000	6.43770097295288
HALO01000000	1.94061540801311
HALO10000000	10.37279349599960
N...(.......	2.31196496420307
N...........	2.30798477079254
N.../.......	0.00000000000000
N...1.......	-1.06689948754385
N...2.......	0.62449408983579
N...=.......	-1.81618649366777
N...C.......	-4.62619357960066
N...N.......	-6.87605893337168
O...(.......	0.62891926708398
O...........	-0.87739193486515
O...1.......	-11.18359421965430
O...2.......	5.87648671165109
O...3.......	0.00000000000000
O...4.......	0.00000000000000
O...=.......	-0.12255988888210
O...C.......	-2.93777426502667
O...N.......	7.74805258881999
P...(.......	-3.49503089488018
P...........	5.68990579304518
P...1.......	0.00000000000000
P...@.......	0.00000000000000
P...O.......	0.00000000000000
NNC-C...101.	2.87858154746005
NNC-C...110.	2.31322674374096
NNC-C...202.	-4.81396932580741
NNC-C...211.	2.87474427090492
NNC-C...220.	-0.68419702716870
NNC-C...303.	-0.12634494524449
NNC-C...312.	1.93873322818195
NNC-C...321.	-1.24916257394012
NNC-C...330.	-0.50195237222826
NNC-C...404.	3.43315749091096
NNC-C...413.	0.00000000000000
NNC-C...431.	6.62121382448357
NNC-C...440.	-8.19088808907894
NNC-F...110.	-0.12513112256303
NNC-Br..110.	0.62496440900257
NNC-Cl..101.	-0.87061430152040
NNC-Cl..110.	-1.43933901229641
NNC-N...101.	7.56513506098650
NNC-N...110.	-2.94073934694054
NNC-N...202.	12.06500019093510
NNC-N...211.	-0.69156698603882
NNC-N...220.	-1.81234097220004
NNC-N...303.	0.00000000000000
NNC-N...312.	3.25374230942223
NNC-N...321.	-1.24512109353906
NNC-N...330.	-0.87017524375580
NNC-N...431.	0.00000000000000
NNC-O...101.	2.68418123967480
NNC-O...110.	1.74901891027810
NNC-O...202.	-8.00489494627342
NNC-O...211.	-3.31609099952737
NNC-O...220.	3.81171626843978
NNC-P...303.	0.00000000000000
NNC-P...404.	1.37545962798409
NNC-P...413.	0.00000000000000
NNC-S...101.	15.62227856570380
NNC-S...110.	-1.81228414387209
NNC-S...211.	-2.00487035725266
NNC-S...220.	2.12667265068507
NNC-S...413.	0.99594507629518
NNC-o...220.	2.87602919254685
NOSP00000000	-4.81026499222033
NOSP01000000	2.68806671865983
NOSP01010000	15.24812077085950
NOSP01110000	0.00000000000000
NOSP10000000	1.55958065329120
NOSP10100000	15.25389201691140
NOSP11000000	3.81594550621230
NOSP11010000	-0.87404050769052
NOSP11100000	3.80857803872787
NOSP11110000	13.18849344032580
S...(.......	0.43508174506482
S...........	-2.94243050140096
S...=.......	-3.87981185406447
S...C.......	-3.50357556671137
S...P.......	0.00000000000000
S...S.......	0.00000000000000
[...(.......	0.24929220669903
[...........	-0.49757437261986
[...1.......	-0.87280605242122
[...2.......	-3.68889049636899
[...3.......	-1.24860358534381
[...4.......	1.00057340094587
[...@.......	-2.00134562506806
[...@@......	2.30995889114449
[...C.......	2.12307687158696
[...H.......	-1.24537038945826
[...N.......	0.00000000000000
[...O.......	0.00000000000000
[...P.......	0.00000000000000
[...S.......	0.00000000000000
\...(.......	0.00000000000000
\...........	-4.62681074727094
\...C.......	0.00000000000000
\...N.......	0.00000000000000
\...O.......	-0.87890059125144
c...(.......	-0.87209356008796
c...........	-0.87291918927804
c...1.......	0.99675176707795
c...2.......	0.99711719710846
c...3.......	2.30907327210763
c...C.......	-4.24762331069447
c...N.......	3.62840107614873
c...O.......	5.87801996385213
c...S.......	13.37840141589980
c...[.......	0.00000000000000
c...\.......	0.00000000000000
c...c.......	-0.68319344067480
n...(.......	-0.12071399807697
n...........	0.81619571329094
n...1.......	1.56590197686804
n...2.......	0.00000000000000
n...3.......	0.00000000000000
n...H.......	0.00000000000000
n...[.......	0.00000000000000
n...c.......	-1.44007334537338
o...(.......	-6.31732770537725
o...........	3.44035703900270
o...1.......	0.00000000000000
o...3.......	0.00000000000000
o...c.......	3.62533092363970
